Introduction to nomisr • nomisr
…
a <- nomis_search('claimants')

Nomis datasets also contain keywords, which nomis_search() will return metadata for if keywords = TRUE.

b <- nomis_search('Claimants', keywords = TRUE)

Querying data variables

Vast amounts of data are available through Nomis and so to avoid overwhelming the API, it is good practice to query what variables are available, using nomis_codes(). This queries the different kinds of geography codes available through the API for the “LC4408EW - Tenure bynumber of persons per bedroom in household by household type” dataset.

  a <- nomis_codes(id = "NM_893_1", code = "geography", type = "type")

  print(a)
#> # A tibble: 22 x 2
#>    description                                        value  
#>    <chr>                                              <chr>  
#>  1 NHS area teams                                     TYPE265
#>  2 clinical commissioning groups                      TYPE266
#>  3 built-up areas including subdivisions              TYPE267
#>  4 built-up areas                                     TYPE269
#>  5 national assembly for wales electoral regions 2010 TYPE273
#>  6 postcode areas                                     TYPE274
#>  7 postcode districts                                 TYPE275
#>  8 postcode sectors                                   TYPE276
#>  9 national assembly for wales constituencies 2010    TYPE277
#> 10 parishes 2011                                      TYPE279
#> # ... with 12 more rows
…
