Introduction to `threesixtygiving` • threesixtygiving
…
# Get just the core data required by the 360Giving standard.
# Convert that list of tibbles into a tidy format:
all_data <- tsg_core_data(grants) 

avg_size <- all_data %>% #This %>% thing is a called a pipe. Pipes are love. Pipes are life.
  filter(currency == "GBP") %>% # Filter out non-£ data
  group_by(funding_org_name) %>% # Group all the funders together
  summarise(avg = mean(amount_awarded)) # Get the average of given value for each group, kinda like =AVERAGEIFS in Excel.

avg_size

# # A tibble: 109 x 2
#    funding_org_name                             avg
#    <chr>                                      <dbl>
#  1 A B Charitable Trust                      13714.
#  2 Barrow Cadbury Trust                      35889.
#  3 BBC Children in Need                      55968.
#  4 Birmingham City Council                   32097.
#  5 Calouste Gulbenkian Foundation, UK Branch 34352.
#  6 Camden Giving                             18254.
#  7 Cheshire Community Foundation              6027.
#  8 City Bridge Trust                         81381.
#  9 Cloudesley                                14441.
# 10 Co-operative Group                         3238.
# # ... with 99 more rows
…
