Introduction to `guardianapi` • guardianapi
…
We can also use gu_content() for more general queries.
For example, here’s all the articles returned for “relationships”
between the two given dates:

relations <- gu_content(query = "relationships", from_date = "2018-11-30",
                        to_date = "2018-12-30")

tibble::glimpse(relations)

#> # A tibble: 170 × 44
#>    id      type  section_id section_name web_publication_da… web_title  web_url 
#>    <chr>   <chr> <chr>      <chr>        <dttm>              <chr>      <chr>   
#>  1 music/… arti… music      Music        2018-12-02 09:10:28 The 1975:… https:/…
#>  2 film/2… arti… film       Film         2018-12-18 09:48:12 Woman cla… https:/…
#>  3 lifean… arti… lifeandst… Life and st… 2018-12-10 09:00:39 I’m in a … https:/…
#>  4 politi… arti… politics   Politics     2018-12-25 18:00:00 'Special … https:/…
#>  5 footba… arti… football   Football     2018-12-19 11:08:41 Kelly Cat… https:/…
#>  6 film/2… arti… film       Film         2018-12-14 15:06:11 Sondra Lo… https:/…
#>  7 footba… arti… football   Football     2018-12-05 02:16:40 Mancheste… https:/…
#>  8 commen… arti… commentis… Opinion      2018-12-24 11:41:14 How to ge… https:/…
#>  9 books/… arti… books      Books        2018-12-15 15:00:13 Dolly Ald… https:/…
#> 10 footba… arti… football   Football     2018-12-09 18:00:20 Phoenix s… https:/…
#> # … with 160 more rows, and 37 more variables: api_url <chr>, tags <list>,
#> #   is_hosted <lgl>, pillar_id <chr>, pillar_name <chr>, headline <chr>,
#> #   standfirst <chr>, trail_text <chr>, byline <chr>, main <chr>, body <chr>,
#> #   newspaper_page_number <chr>, star_rating <chr>, wordcount <chr>,
#> #   comment_close_date <dttm>, commentable <chr>,
#> #   first_publication_date <dttm>, is_inappropriate_for_sponsorship <chr>,
#> #   is_premoderated <chr>, last_modified <chr>, …
…
